simulation/qsim/ula.msim.vcd
$comment
	File created using the following command:
		vcd file ula.msim.vcd -direction
$end
$date
	Fri Mar 15 14:36:03 2024
$end
$version
	ModelSim Version 10.1d
$end
$timescale
	1ps
$end
$scope module ULA_vlg_vec_tst $end
$var reg 4 ! a [3:0] $end
$var reg 4 " b [3:0] $end
$var reg 3 # sel [2:0] $end
$var wire 1 $ AUX_1 $end
$var wire 1 % AUX_2 $end
$var wire 1 & c $end
$var wire 1 ' n $end
$var wire 1 ( s [13] $end
$var wire 1 ) s [12] $end
$var wire 1 * s [11] $end
$var wire 1 + s [10] $end
$var wire 1 , s [9] $end
$var wire 1 - s [8] $end
$var wire 1 . s [7] $end
$var wire 1 / s [6] $end
$var wire 1 0 s [5] $end
$var wire 1 1 s [4] $end
$var wire 1 2 s [3] $end
$var wire 1 3 s [2] $end
$var wire 1 4 s [1] $end
$var wire 1 5 s [0] $end
$var wire 1 6 v $end
$var wire 1 7 y [3] $end
$var wire 1 8 y [2] $end
$var wire 1 9 y [1] $end
$var wire 1 : y [0] $end
$var wire 1 ; z $end
$var wire 1 < sampler $end
$scope module i1 $end
$var wire 1 = gnd $end
$var wire 1 > vcc $end
$var wire 1 ? unknown $end
$var tri1 1 @ devclrn $end
$var tri1 1 A devpor $end
$var tri1 1 B devoe $end
$var wire 1 C Mux0~2_combout $end
$var wire 1 D Mux3~0_combout $end
$var wire 1 E add_op|M1|s0~combout $end
$var wire 1 F Mux2~0_combout $end
$var wire 1 G Mux2~3_combout $end
$var wire 1 H Mux2~4_combout $end
$var wire 1 I sub_op|M1|cout~0_combout $end
$var wire 1 J sub_op|M2|cout~0_combout $end
$var wire 1 K add_op|M1|cout~0_combout $end
$var wire 1 L add_op|M2|cout~0_combout $end
$var wire 1 M v~0_combout $end
$var wire 1 N Mux0~5_combout $end
$var wire 1 O Mux0~6_combout $end
$var wire 1 P Mux0~3_combout $end
$var wire 1 Q Mux0~4_combout $end
$var wire 1 R Mux3~1_combout $end
$var wire 1 S Mux3~2_combout $end
$var wire 1 T Mux1~1_combout $end
$var wire 1 U Mux1~2_combout $end
$var wire 1 V Mux1~3_combout $end
$var wire 1 W Mux1~4_combout $end
$var wire 1 X Mux1~5_combout $end
$var wire 1 Y Mux1~6_combout $end
$var wire 1 Z Mux1~7_combout $end
$var wire 1 [ Mux1~0_combout $end
$var wire 1 \ Mux1~8_combout $end
$var wire 1 ] Mux2~1_combout $end
$var wire 1 ^ Mux2~2_combout $end
$var wire 1 _ Mux4~0_combout $end
$var wire 1 ` sub_op|M3|s0~combout $end
$var wire 1 a add_op|M3|cout~8_combout $end
$var wire 1 b sub_op|M3|cout~0_combout $end
$var wire 1 c convert_to_7_display|Mux10~0_combout $end
$var wire 1 d convert_to_7_display|Mux9~0_combout $end
$var wire 1 e convert_to_7_display|Mux8~0_combout $end
$var wire 1 f convert_to_7_display|Mux7~0_combout $end
$var wire 1 g convert_to_7_display|Mux6~0_combout $end
$var wire 1 h convert_to_7_display|Mux5~0_combout $end
$var wire 1 i convert_to_7_display|Mux4~0_combout $end
$var wire 1 j convert_to_7_display|Mux3~0_combout $end
$var wire 1 k or_op|s [3] $end
$var wire 1 l or_op|s [2] $end
$var wire 1 m or_op|s [1] $end
$var wire 1 n or_op|s [0] $end
$var wire 1 o sel~combout [2] $end
$var wire 1 p sel~combout [1] $end
$var wire 1 q sel~combout [0] $end
$var wire 1 r b~combout [3] $end
$var wire 1 s b~combout [2] $end
$var wire 1 t b~combout [1] $end
$var wire 1 u b~combout [0] $end
$var wire 1 v a~combout [3] $end
$var wire 1 w a~combout [2] $end
$var wire 1 x a~combout [1] $end
$var wire 1 y a~combout [0] $end
$upscope $end
$upscope $end
$enddefinitions $end
#0
$dumpvars
b0 !
b1101 "
b0 #
0$
0%
0&
0'
05
04
03
02
11
10
0/
1.
0-
0,
1+
1*
1)
1(
06
1:
09
18
17
0;
x<
0=
1>
x?
1@
1A
1B
0C
1D
0E
0F
0G
0H
0I
0J
0K
0L
0M
0N
1O
1P
1Q
0R
1S
0T
1U
1V
1W
0X
1Y
0Z
1[
1\
0]
0^
0_
1`
0a
0b
0c
0d
0e
0f
1g
1h
1i
0j
zn
zm
zl
1k
0q
0p
0o
1u
0t
1s
1r
0y
0x
0w
0v
$end
#40000
b1 !
b101 "
b1 "
b11 "
1t
0s
0r
1y
0<
1]
1K
1Z
1T
0`
0k
0O
0D
0P
0S
1'
0Q
0g
1e
0:
1j
0h
1g
1f
0e
1c
07
01
13
00
11
12
03
15
0.
0+
0*
0)
#80000
b11 !
b10 !
b1011 "
b1111 "
1s
1r
0y
1x
1<
0Z
0T
1L
1`
1k
1O
1D
0U
1a
1N
1P
1S
0'
0V
0O
1Q
0f
1d
0c
1$
1:
0Y
0P
0j
1h
0d
17
02
14
05
0\
1Z
0Q
10
04
1.
1+
1*
1)
1j
0i
1f
1c
08
07
12
15
0.
0+
0*
0)
1/
#120000
b1110 "
b1100 "
b11 !
b100 "
1y
0u
0t
0r
0<
0]
0K
1I
1E
0a
0`
0k
1O
1M
1U
0L
1G
1P
0$
16
1'
1V
0N
0M
1H
1Q
1Y
0O
1F
1i
0h
0f
0c
06
17
1\
0P
1^
00
02
05
0/
0j
1d
0Q
18
19
1j
0i
1h
1f
0d
14
07
1.
1+
1*
1)
10
12
04
0.
0+
0*
0)
1/
#160000
b111 !
b101 !
b101 "
b100 !
b1101 "
1u
1r
0y
0x
1w
1<
1]
0I
0E
1`
1k
1O
0Z
1T
1L
1J
1Z
0J
0G
1P
0U
1a
1N
1M
0`
0'
1`
0M
0H
1Q
0V
0O
1$
16
1'
0P
0F
0j
1i
0h
0f
1d
0Y
06
17
0'
0Q
0^
0]
0\
00
02
14
1.
1+
1*
1)
0/
1j
0i
1h
1f
0d
1c
07
09
08
10
12
04
15
0.
0+
0*
0)
1/
#200000
b101 !
b101 "
0r
1y
0<
0a
0`
0k
1O
1M
1I
1E
0D
1P
1J
1G
0S
0$
16
1'
1Q
1b
1`
1H
0h
0g
0f
0c
1_
0:
1i
0_
1F
17
1%
00
01
02
05
1;
0'
1^
0;
0/
0j
0i
19
1.
1+
1*
1)
1/
#240000
b111 !
b110 !
b1101 "
1r
0y
1x
1<
0b
1a
0`
1k
0O
1]
1D
0P
1S
0%
1$
1'
0Q
1h
1g
1f
1c
1:
1j
1i
0f
0c
07
10
11
12
15
02
05
0.
0+
0*
0)
0/
#280000
b1001 "
b1011 "
b111 !
b11 "
1y
1t
0s
0r
0<
1K
0D
0T
0L
1b
0a
1`
0k
1O
1L
0S
0N
0M
1P
1%
0$
0'
1N
1M
0g
1e
0O
1Q
0:
06
1O
0P
0j
0i
0h
0e
16
01
13
17
1P
0Q
00
03
1.
1+
1*
1)
1/
1Q
1j
1i
1h
1e
07
0j
0i
0h
0e
17
10
13
0.
0+
0*
0)
0/
00
03
1.
1+
1*
1)
1/
#320000
b1111 !
b1011 !
b1001 !
b1000 !
0y
0x
0w
1v
1<
0]
0K
0I
1D
0Z
1T
0L
1a
0`
1k
0N
0M
0J
1S
0a
1N
0O
1$
06
1'
1`
1M
1h
1g
1f
1c
1O
0P
1:
0$
1P
0Q
16
10
11
12
15
0'
1Q
1j
1i
0f
0c
07
0j
0i
1f
1c
17
02
05
0.
0+
0*
0)
0/
12
15
1.
1+
1*
1)
1/
#360000
b111 "
b1001 !
1y
1s
0<
1]
1K
0E
0D
1Z
0T
1L
0G
0S
1a
0N
0H
0h
0g
0f
0c
0:
0O
0F
1$
00
01
02
05
0P
0^
0Q
1j
1i
09
0i
1_
07
0.
0+
0*
0)
0/
1;
1/
#400000
b101 "
b1101 "
b1011 !
b1010 !
0y
1x
0t
1r
1<
0]
0K
1I
1E
1D
0b
0`
1O
0M
1U
0L
1G
1S
1P
0%
06
1'
1V
1N
1M
1H
1h
1g
1f
1c
0_
1Q
1:
1Y
0O
1F
1i
0h
0f
0c
16
10
11
12
15
0;
17
1\
0P
1^
1]
00
02
05
0/
0j
1d
0Q
18
19
1j
0i
1h
1f
0d
14
07
1.
1+
1*
1)
10
12
04
0.
0+
0*
0)
1/
#440000
b1100 "
b1000 "
b0 "
b1011 !
1y
0u
0s
0r
0<
0]
0Z
1T
1J
1b
0a
1`
1O
0U
0`
0M
1P
1%
0$
0'
0V
1Q
06
1'
0Y
0j
1i
0h
0f
1d
17
0\
00
02
14
1.
1+
1*
1)
0/
0i
1h
1f
0d
1c
08
10
12
04
15
1/
#480000
b1111 !
b1101 !
b1000 "
b1100 !
1r
0y
0x
1w
1<
1a
1`
0O
1M
0E
0D
1Z
0T
0P
0G
0S
1U
1$
16
0'
0Q
0H
0h
0g
0f
0c
1V
0:
1j
1i
1h
1e
0F
1Y
07
00
01
02
05
0^
1\
10
13
0.
0+
0*
0)
0/
0h
1g
1f
0e
1c
09
18
00
11
12
03
15
#510000
b1 #
1q
0<
0U
1O
0V
1P
0Y
1Q
0\
0j
1h
0g
0f
1e
0c
17
1j
0h
0e
08
10
01
02
13
05
1.
1+
1*
1)
00
03
0.
0+
0*
0)
#520000
b1010 "
b1110 "
b1101 !
1y
1t
1s
1<
1]
0I
1E
1T
1L
0J
1U
0M
0b
0`
1V
06
1Y
0%
1'
1\
0j
1h
1e
18
10
13
1.
1+
1*
1)
#560000
b1111 !
b110 "
b100 "
b1110 !
0t
0r
0y
1x
0<
0]
1I
1b
1`
0O
1M
0Z
1J
0P
1%
16
0'
0`
0M
0Q
1j
0h
1g
1f
0e
1c
06
07
1'
00
11
12
03
15
0.
0+
0*
0)
#600000
b0 "
b10 "
b1111 !
1y
1t
0s
1<
1]
1K
0E
1H
1Z
0T
0L
0U
1L
1F
0a
0V
1a
1^
0$
0Y
0g
0f
1d
0c
1$
19
0\
01
02
14
05
1h
1e
0d
08
10
13
04
#640000
b111 !
b11 !
b1 !
b1010 "
b1110 "
b0 !
1s
1r
0y
0x
0w
0v
0<
0J
0b
1O
1M
0K
0I
1E
0H
1C
0N
1`
0M
1P
0L
0F
0O
0%
16
0P
1Q
0a
0^
06
0'
0Q
0h
0e
17
0$
09
0i
1_
07
00
03
1;
1/
#680000
b1100 "
b1000 "
b1 !
1y
0t
0s
1<
0]
1I
0E
0Z
1J
0`
1M
16
1'
#720000
b1001 "
b11 !
b1101 "
b10 !
0y
1x
1u
1s
0<
1E
1Z
0J
1`
0M
06
0'
#760000
b11 !
1y
1<
1K
0E
1D
1L
1S
1a
1h
1g
1f
1c
0_
1:
1$
10
11
12
15
0;
#800000
b111 !
b101 "
b101 !
b1 "
b100 !
0s
0r
0y
0x
1w
0<
1J
0a
0`
0k
1M
0K
0I
0D
1b
1`
0L
0S
0$
16
1'
0M
0h
0g
0f
0c
1_
1%
0:
0'
06
00
01
02
05
1;
#840000
b11 "
b1011 "
b1111 "
b101 !
1y
1t
1s
1r
1<
1]
1K
1D
1T
1L
0J
0b
0`
1k
1M
1U
1S
1a
0M
1`
0%
16
1'
1V
1h
1g
1f
1c
0_
1:
1$
06
0'
1Y
10
11
12
15
0;
1\
1i
0h
0f
1d
0c
18
00
02
14
05
0/
#880000
b111 !
b1101 "
b1001 "
b110 !
0t
0s
0y
1x
0<
0]
0K
1I
1E
0Z
0T
1J
0D
0U
0L
1Z
0`
1M
0S
0V
0a
1f
0d
1c
16
0:
1'
0Y
0$
12
04
15
0\
0i
0g
0f
0c
1_
08
01
02
05
1;
1/
#920000
b1000 "
b0 "
b10 "
b111 !
1y
0u
1t
0r
1<
1]
1K
0E
1H
1b
1`
0k
0M
1L
1F
1%
06
0'
1M
1^
1i
1h
1e
0_
16
19
10
13
0;
0/
#960000
b1111 !
b1011 !
b1001 !
b110 "
b111 "
b1111 "
b1000 !
1u
1s
1r
0y
0x
0w
1v
0<
0]
0K
0I
1E
0J
1a
1k
0M
0H
0C
1N
0L
0b
0`
0F
1O
1$
06
1M
1P
0^
1]
0%
1'
1Q
0i
0h
0e
1_
16
09
1i
0_
17
00
03
1;
1/
0;
0/
#990000
b0 #
0q
1<
1U
0O
1G
1D
1V
0P
1H
1S
1Y
0Q
1F
1g
1:
1\
0Z
0i
1h
1f
1c
1^
0]
07
11
0c
18
10
12
15
19
1/
05
